tests/dump.vcd
$date
	Thu Feb 27 10:25:21 2025
$end
$version
	Icarus Verilog
$end
$timescale
	1ns
$end
$scope module HyperRAM_wrapper $end
$var wire 1 ! clk $end
$var wire 1 " csneg $end
$var wire 1 # rst $end
$var wire 1 $ rwds $end
$var wire 1 % dq7 $end
$var wire 1 & dq6 $end
$var wire 1 ' dq5 $end
$var wire 1 ( dq4 $end
$var wire 1 ) dq3 $end
$var wire 1 * dq2 $end
$var wire 1 + dq1 $end
$var wire 1 , dq0 $end
$var wire 8 - dq [7:0] $end
$scope module RAM $end
$var wire 1 ! CK $end
$var wire 1 . CKDiff $end
$var wire 1 / CK_ipd $end
$var wire 1 " CSNeg $end
$var wire 1 0 CSNeg_ipd $end
$var wire 1 , DQ0 $end
$var wire 1 1 DQ0_ipd $end
$var wire 1 + DQ1 $end
$var wire 1 2 DQ1_ipd $end
$var wire 1 * DQ2 $end
$var wire 1 3 DQ2_ipd $end
$var wire 1 ) DQ3 $end
$var wire 1 4 DQ3_ipd $end
$var wire 1 ( DQ4 $end
$var wire 1 5 DQ4_ipd $end
$var wire 1 ' DQ5 $end
$var wire 1 6 DQ5_ipd $end
$var wire 1 & DQ6 $end
$var wire 1 7 DQ6_ipd $end
$var wire 1 % DQ7 $end
$var wire 1 8 DQ7_ipd $end
$var wire 1 # RESETNeg $end
$var wire 1 9 RESETNeg_ipd $end
$var wire 1 $ RWDS $end
$var wire 1 : RWDS_ipd $end
$var wire 1 ; RWDS_zd $end
$var wire 1 < RWDSin $end
$var wire 1 = RWDSout_Z $end
$var wire 1 > tRWR_CHK $end
$var wire 8 ? mDQ [7:0] $end
$var wire 1 @ RESETNeg_pullup $end
$var wire 1 A Dout_Z $end
$var wire 8 B Dout [7:0] $end
$var wire 8 C Din [7:0] $end
$var wire 1 D DQ7_zd $end
$var wire 1 E DQ6_zd $end
$var wire 1 F DQ5_zd $end
$var wire 1 G DQ4_zd $end
$var wire 1 H DQ3_zd $end
$var wire 1 I DQ2_zd $end
$var wire 1 J DQ1_zd $end
$var wire 1 K DQ0_zd $end
$var wire 1 L DPDExt_in $end
$var wire 1 M BuffOutRWDSR $end
$var wire 1 N BuffOutRWDS $end
$var wire 1 O BuffOutDQ $end
$var reg 1 P ALTERNATE_64 $end
$var reg 1 Q BuffInDQ $end
$var reg 1 R BuffInRWDS $end
$var reg 1 S BuffInRWDSR $end
$var reg 64 T CK_cycle [63:0] $end
$var reg 16 U Config_reg [15:0] $end
$var reg 1 V DPDExt $end
$var reg 1 W DPDExt_out $end
$var reg 1 X DPD_ACT $end
$var reg 1 Y DPD_in $end
$var reg 1 Z DPD_out $end
$var reg 16 [ Data_in [15:0] $end
$var reg 8 \ Dout_zd [7:0] $end
$var reg 8 ] Dout_zd_latchH [7:0] $end
$var reg 8 ^ Dout_zd_latchL [7:0] $end
$var reg 8 _ Dout_zd_tmp [7:0] $end
$var reg 1 ` HYBRID $end
$var reg 1 a LByteMask $end
$var reg 1 b PO_in $end
$var reg 1 c PO_out $end
$var reg 1 d PoweredUp $end
$var reg 2 e RD_MODE [1:0] $end
$var reg 1 f RD_WRAP $end
$var reg 1 g REFCOLL $end
$var reg 1 h REFCOLL_ACTIV $end
$var reg 1 i REF_in $end
$var reg 1 j REF_out $end
$var reg 1 k RPH_in $end
$var reg 1 l RPH_out $end
$var reg 1 m RW $end
$var reg 1 n RWDS_zd_latchH $end
$var reg 1 o RWDS_zd_latchL $end
$var reg 1 p RWDSout_zd $end
$var reg 1 q RWDSout_zd_tmp $end
$var reg 1 r RdWrStart $end
$var reg 1 s SPEED100 $end
$var reg 1 t Target $end
$var reg 1 u UByteMask $end
$var reg 1 v Viol $end
$var reg 2 w bus_cycle_state [1:0] $end
$var reg 48 x ca_in [47:0] $end
$var reg 3 y current_state [2:0] $end
$var reg 1 z falling_edge_CKDiff $end
$var reg 1 { falling_edge_CSNeg $end
$var reg 1 | falling_edge_RESETNeg $end
$var reg 1 } glitch_dq $end
$var reg 1 ~ glitch_rwds $end
$var reg 1 !" glitch_rwdsR $end
$var reg 3 "" next_state [2:0] $end
$var reg 64 #" prev_CK [63:0] $end
$var reg 1 $" rising_edge_CKDiff $end
$var reg 1 %" rising_edge_CSNeg $end
$var reg 1 &" rising_edge_DPD_in $end
$var reg 1 '" rising_edge_DPD_out $end
$var reg 1 (" rising_edge_PO_out $end
$var reg 1 )" rising_edge_PoweredUp $end
$var reg 1 *" rising_edge_REF_out $end
$var reg 1 +" rising_edge_RESETNeg $end
$var reg 1 ," rising_edge_RPH_out $end
$var reg 1 -" rising_edge_glitch_rwds $end
$var reg 1 ." t_RWR_CHK $end
$var reg 8 /" tmp_char1 [7:0] $end
$var reg 192 0" tmp_timing [191:0] $end
$var integer 32 1" Address [31:0] $end
$var integer 32 2" BurstDelay [31:0] $end
$var integer 32 3" BurstLength [31:0] $end
$var integer 32 4" DQt_01 [31:0] $end
$var integer 32 5" RWDSRt_01 [31:0] $end
$var integer 32 6" RWDSt_01 [31:0] $end
$var integer 32 7" RefreshDelay [31:0] $end
$var integer 32 8" Start_BurstAddr [31:0] $end
$var integer 32 9" ca_cnt [31:0] $end
$var integer 32 :" data_cycle [31:0] $end
$var integer 32 ;" found [31:0] $end
$scope module BUF_DOut $end
$var wire 1 Q IN $end
$var wire 1 O OUT $end
$upscope $end
$scope module BUF_RWDS $end
$var wire 1 R IN $end
$var wire 1 N OUT $end
$upscope $end
$scope module BUF_RWDSR $end
$var wire 1 S IN $end
$var wire 1 M OUT $end
$upscope $end
$scope begin BusCycle $end
$var integer 32 <" i [31:0] $end
$upscope $end
$scope begin CheckCSOnPowerUP $end
$upscope $end
$scope begin CurrentStatGen $end
$upscope $end
$scope begin DPDExtDetected $end
$upscope $end
$scope begin DPDExtEvent $end
$upscope $end
$scope begin DPDTime $end
$upscope $end
$scope begin DPDf $end
$upscope $end
$scope begin DPDr $end
$upscope $end
$scope begin Functional $end
$upscope $end
$scope begin InitMemory $end
$var integer 32 =" i [31:0] $end
$upscope $end
$scope begin InitTimingModel $end
$var integer 32 >" i [31:0] $end
$var integer 32 ?" j [31:0] $end
$upscope $end
$scope begin POf $end
$upscope $end
$scope begin POr $end
$upscope $end
$scope begin REFf $end
$upscope $end
$scope begin REFr $end
$upscope $end
$scope begin RPHf $end
$upscope $end
$scope begin RPHr $end
$upscope $end
$scope begin StateGen $end
$upscope $end
$scope begin clk_period $end
$upscope $end
$scope begin clock_period $end
$upscope $end
$scope begin read_process_dq1 $end
$upscope $end
$scope begin read_process_dq2 $end
$upscope $end
$scope begin read_process_rwds1 $end
$upscope $end
$scope begin read_process_rwds2 $end
$upscope $end
$scope begin read_process_rwdsR1 $end
$upscope $end
$scope begin read_process_rwdsR2 $end
$upscope $end
$upscope $end
$upscope $end
$enddefinitions $end
#0
$dumpvars
b1000 ?"
b10000 >"
b10000000000000000000000 ="
bx <"
b1 ;"
b0 :"
b110000 9"
bx 8"
b100 7"
b0 6"
b0 5"
b0 4"
bx 3"
bx 2"
bx 1"
b101001100110010001101110100101101001100001100000011011000110100001100010100010001000001010000100100100001001001001100000011000000110000 0"
b1000001 /"
0."
0-"
0,"
0+"
0*"
0)"
0("
0'"
0&"
0%"
1$"
b0 #"
b0 ""
0!"
0~
0}
0|
0{
0z
b0 y
bx x
b0 w
0v
0u
0t
1s
0r
zq
zp
xo
xn
0m
0l
0k
0j
0i
0h
0g
xf
b1 e
0d
0c
0b
0a
0`
bz _
bx ^
bx ]
bz \
bx [
0Z
0Y
0X
0W
0V
b1000111100011111 U
bx T
1S
1R
1Q
0P
1O
1N
1M
0L
zK
zJ
zI
zH
zG
zF
zE
zD
bz C
bz B
xA
1@
bz ?
0>
x=
x<
z;
x:
z9
z8
z7
z6
z5
z4
z3
z2
z1
z0
1/
1.
bz -
z,
z+
z*
z)
z(
z'
z&
z%
z$
z#
z"
1!
$end
#1
0$"
#5
0/
1z
0.
0!
#6
0z
#10
1/
1$"
b1010 #"
b1010 T
1.
1!
#11
0$"
#15
0/
1z
0.
0!
#16
0z
#20
1/
1$"
b10100 #"
1.
1!
#21
0$"
#25
0/
1z
0.
0!
#26
0z
#30
1/
1$"
b11110 #"
1.
1!
#31
0$"
#35
0/
1z
0.
0!
#36
0z
#40
1/
1$"
b101000 #"
1.
1!
#41
0$"
#45
0/
1z
0.
0!
#46
0z
#50
1/
1$"
b110010 #"
1.
1!
#51
0$"
#55
0/
1z
0.
0!
#56
0z
#60
1/
1$"
b111100 #"
1.
1!
#61
0$"
#65
0/
1z
0.
0!
#66
0z
#70
1/
1$"
b1000110 #"
1.
1!
#71
0$"
#75
0/
1z
0.
0!
#76
0z
#80
1/
1$"
b1010000 #"
1.
1!
#81
0$"
#85
0/
1z
0.
0!
#86
0z
#90
1/
1$"
b1011010 #"
1.
1!
#91
0$"
#95
0/
1z
0.
0!
#96
0z
#100
0@
1/
1$"
b1100100 #"
09
1|
1.
1!
0#
#101
0$"
0|
#105
0/
1z
0.
0!
#106
0z
#110
1/
1$"
b1101110 #"
1.
1!
#111
0$"
#115
0/
1z
0.
0!
#116
0z
#120
1/
1$"
b1111000 #"
1.
1!
#121
0$"
#125
0/
1z
0.
0!
#126
0z
#130
1/
1$"
b10000010 #"
1.
1!
#131
0$"
#135
0/
1z
0.
0!
#136
0z
#140
1/
1$"
b10001100 #"
1.
1!
#141
0$"
#145
0/
1z
0.
0!
#146
0z
#150
1/
1$"
b10010110 #"
1.
1!
b1 y
b1 ""
1)"
1d
#151
0$"
0)"
#155
0/
1z
0.
0!
#156
0z
#160
1/
1$"
b10100000 #"
1.
1!
#161
0$"
#165
0/
1z
0.
0!
#166
0z
#170
1/
1$"
b10101010 #"
1.
1!
#171
0$"
#175
0/
1z
0.
0!
#176
0z
#180
1/
1$"
b10110100 #"
1.
1!
#181
0$"
#185
0/
1z
0.
0!
#186
0z
#190
1/
1$"
b10111110 #"
1.
1!
#191
0$"
#195
0/
1z
0.
0!
#196
0z
#200
1@
1/
1$"
b11001000 #"
19
1+"
10
1%"
1.
1!
1#
1"
z,
z+
z*
z)
z(
z'
z&
z%
z$
#201
0/
1z
0.
0!
z$
0$"
0+"
0%"
#202
z$
0z
#203
z$
#204
z$
#205
b10 y
b10 ""
1k
0@
09
1|
0#
z$
#206
z%
z&
z'
z(
z)
z*
z+
z,
z$
0|
#207
z$
#208
z$
#209
z$
#210
z$
#211
z$
#212
z$
#213
z$
#214
z$
#215
z$
#216
z$
#217
z$
#218
z$
#219
z%
z&
z'
z(
z)
z*
z+
z,
z$
#220
z$
#221
z$
#222
z$
#223
z$
#224
z$
#225
z$
#226
z$
#227
z$
#228
z$
#229
z$
#230
z$
#231
z$
#232
z%
z&
z'
z(
z)
z*
z+
z,
z$
#233
z$
#234
z$
#235
z$
#236
z$
#237
z$
#238
z$
#239
z$
#240
z$
#241
z$
#242
z$
#243
z$
#244
z$
#245
z%
z&
z'
z(
z)
z*
z+
z,
z$
0k
1,"
1l
#246
z$
0l
0,"
#247
z$
#248
z$
#249
z$
#250
z$
#251
z$
#252
z$
#253
z$
#254
z$
#255
z$
#256
z$
#257
z$
#258
z%
z&
z'
z(
z)
z*
z+
z,
z$
#259
z$
#260
z$
#261
z$
#262
z$
#263
z$
#264
z$
#265
z$
#266
z$
#267
z$
#268
z$
#269
z$
#270
z$
#271
z%
z&
z'
z(
z)
z*
z+
z,
z$
#272
z$
#273
z$
#274
z$
#275
z$
#276
z$
#277
z$
#278
z$
#279
z$
#280
z$
#281
z$
#282
z$
#283
z$
#284
z%
z&
z'
z(
z)
z*
z+
z,
z$
#285
z$
#286
z$
#287
z$
#288
z$
#289
z$
#290
z$
#291
z$
#292
z$
#293
z$
#294
z$
#295
z$
#296
z$
#297
z%
z&
z'
z(
z)
z*
z+
z,
z$
#298
z$
#299
z$
#300
z$
#301
z$
#302
z$
#303
z$
#304
z$
#305
z$
#306
z$
#307
z$
#308
z$
#309
b1 y
b1 ""
1@
19
1+"
1#
z$
#310
z%
z&
z'
z(
z)
z*
z+
z,
z$
0+"
#311
z$
#312
z$
#313
z$
#314
z$
#315
z$
#316
z$
#317
z$
#318
z$
#319
z$
#320
z$
#321
z$
#322
z$
#323
z%
z&
z'
z(
z)
z*
z+
z,
z$
#324
z$
#325
z$
#326
z$
#327
z$
#328
z$
#329
z$
#330
z$
#331
z$
#332
z$
#333
z$
#334
z$
#335
z$
#336
z%
z&
z'
z(
z)
z*
z+
z,
z$
#337
z$
#338
z$
#339
z$
#340
z$
#341
z$
#342
z$
#343
z$
#344
z$
#345
z$
#346
z$
#347
z$
#348
z$
#349
z%
z&
z'
z(
z)
z*
z+
z,
z$
#350
z$
#351
z$
#352
z$
#353
z$
#354
z$
#355
z$
#356
z$
#357
z$
#358
z$
#359
z$
#360
z$
#361
z$
#362
z%
z&
z'
z(
z)
z*
z+
z,
z$
#363
z$
#364
z$
#365
z$
#366
z$
#367
z$
#368
z$
#369
z$
#370
z$
#371
z$
#372
z$
#373
z$
#374
z$
#375
z%
z&
z'
z(
z)
z*
z+
z,
z$
#376
z$
#377
z$
#378
z$
#379
z$
#380
z$
#381
z$
#382
z$
#383
z$
#384
z$
#385
z$
#386
z$
#387
z$
#388
z%
z&
z'
z(
z)
z*
z+
z,
z$
#389
z$
#390
z$
#391
z$
#392
z$
#393
z$
#394
z$
#395
z$
#396
z$
#397
z$
#398
z$
#399
z$
#400
z$
#401
z%
z&
z'
z(
z)
z*
z+
z,
z$
#402
z$
#403
z$
#404
z$
#405
z$
#406
z$
#407
z$
#408
z$
#409
z$
#410
z$
#411
z$
#412
z$
#413
z$
#414
z%
z&
z'
z(
z)
z*
z+
z,
z$
#415
z$
#416
z$
#417
z$
#418
z$
#419
z$
#420
z$
#421
z$
#422
z$
#423
z$
#424
z$
#425
z$
#426
z$
#427
z%
z&
z'
z(
z)
z*
z+
z,
z$
#428
z$
#429
z$
#430
z$
#431
z$
#432
z$
#433
z$
#434
z$
#435
z$
#436
z$
#437
z$
#438
z$
#439
z$
#440
z%
z&
z'
z(
z)
z*
z+
z,
z$
#441
z$
#442
z$
#443
z$
#444
z$
#445
z$
#446
z$
#447
z$
#448
z$
#449
z$
#450
z$
#451
z$
#452
z$
#453
z%
z&
z'
z(
z)
z*
z+
z,
z$
#454
z$
#455
z$
#456
z$
#457
z$
#458
z$
#459
z$
#460
z$
#461
z$
#462
z$
#463
z$
#464
z$
#465
1<
1:
1;
1p
b1 w
0f
00
1{
01
02
03
04
05
06
17
b11000000 C
18
0"
0,
0+
0*
0)
0(
0'
1&
b11000000 B
b11000000 ?
b11000000 -
1%
1$
#466
0,
0+
0*
0)
0(
0'
1&
1%
1$
0{
#467
0,
0+
0*
0)
0(
0'
1&
1%
1$
#468
0,
0+
0*
0)
0(
0'
1&
1%
1$
#469
0,
0+
0*
0)
0(
0'
1&
1%
1$
#470
1q
1h
1g
b101000 9"
b11000000xxxxxxxxxxxxxxxxxxxxxxxxxxxxxxxxxxxxxxxx x
b1001 <"
1/
1$"
b111010110 #"
b100001110 T
1.
1!
0,
0+
0*
0)
0(
0'
1&
1%
1$
#471
0,
0+
0*
0)
0(
0'
1&
1%
1$
0$"
#472
0,
0+
0*
0)
0(
0'
1&
1%
1$
#473
0,
0+
0*
0)
0(
0'
1&
1%
1$
#474
0,
0+
0*
0)
0(
0'
1&
1%
1$
#475
0,
0+
0*
0)
0(
0'
1&
1%
1$
#476
0,
0+
0*
0)
0(
0'
1&
1%
1$
#477
0,
0+
0*
0)
0(
0'
1&
1%
1$
#478
07
b0 C
08
0,
0+
0*
0)
0(
0'
0&
b0 B
b0 ?
b0 -
0%
1$
#479
0,
0+
0*
0)
0(
0'
0&
0%
1$
#480
b100000 9"
b1100000000000000xxxxxxxxxxxxxxxxxxxxxxxxxxxxxxxx x
b1001 <"
0/
1z
0.
0!
0,
0+
0*
0)
0(
0'
0&
0%
1$
#481
0,
0+
0*
0)
0(
0'
0&
0%
1$
0z
#482
0,
0+
0*
0)
0(
0'
0&
0%
1$
#483
0,
0+
0*
0)
0(
0'
0&
0%
1$
#484
0,
0+
0*
0)
0(
0'
0&
0%
1$
#485
0,
0+
0*
0)
0(
0'
0&
0%
1$
#486
0,
0+
0*
0)
0(
0'
0&
0%
1$
#487
0,
0+
0*
0)
0(
0'
0&
0%
1$
#488
0,
0+
0*
0)
0(
0'
0&
0%
1$
#489
0,
0+
0*
0)
0(
0'
0&
0%
1$
#490
1>
1."
b11000 9"
b110000000000000000000000xxxxxxxxxxxxxxxxxxxxxxxx x
b1001 <"
1/
1$"
b111101010 #"
b10100 T
1.
1!
0,
0+
0*
0)
0(
0'
0&
0%
1$
#491
b10 C
12
0,
b10 B
b10 ?
b10 -
1+
0*
0)
0(
0'
0&
0%
1$
0$"
#492
0,
1+
0*
0)
0(
0'
0&
0%
1$
#493
0,
1+
0*
0)
0(
0'
0&
0%
1$
#494
0,
1+
0*
0)
0(
0'
0&
0%
1$
#495
0,
1+
0*
0)
0(
0'
0&
0%
1$
#496
0,
1+
0*
0)
0(
0'
0&
0%
1$
#497
0,
1+
0*
0)
0(
0'
0&
0%
1$
#498
0,
1+
0*
0)
0(
0'
0&
0%
1$
#499
0,
1+
0*
0)
0(
0'
0&
0%
1$
#500
0=
b110 7"
b110 2"
b10000 3"
1i
1t
1m
b10000 9"
b11000000000000000000000000000010xxxxxxxxxxxxxxxx x
b1001 <"
0/
1z
0.
0!
0,
1+
0*
0)
0(
0'
0&
0%
1$
#501
0,
1+
0*
0)
0(
0'
0&
0%
1$
0z
#502
0,
1+
0*
0)
0(
0'
0&
0%
1$
#503
0,
1+
0*
0)
0(
0'
0&
0%
1$
#504
b0 C
02
0,
b0 B
b0 ?
b0 -
0+
0*
0)
0(
0'
0&
0%
1$
#505
0,
0+
0*
0)
0(
0'
0&
0%
1$
#506
0,
0+
0*
0)
0(
0'
0&
0%
1$
#507
0,
0+
0*
0)
0(
0'
0&
0%
1$
#508
0,
0+
0*
0)
0(
0'
0&
0%
1$
#509
0,
0+
0*
0)
0(
0'
0&
0%
1$
#510
0<
0:
0;
0p
0>
0."
0q
b1000 9"
b1100000000000000000000000000001000000000xxxxxxxx x
b1001 <"
1/
1$"
b111111110 #"
1.
1!
0,
0+
0*
0)
0(
0'
0&
0%
0$
#511
0,
0+
0*
0)
0(
0'
0&
0%
0$
0$"
#512
0,
0+
0*
0)
0(
0'
0&
0%
0$
#513
0,
0+
0*
0)
0(
0'
0&
0%
0$
#514
0,
0+
0*
0)
0(
0'
0&
0%
0$
#515
0,
0+
0*
0)
0(
0'
0&
0%
0$
#516
0,
0+
0*
0)
0(
0'
0&
0%
0$
#517
0,
0+
0*
0)
0(
0'
0&
0%
0$
#518
0,
0+
0*
0)
0(
0'
0&
0%
0$
#519
0,
0+
0*
0)
0(
0'
0&
0%
0$
#520
b10 w
b101 7"
b10000 8"
b10000 1"
b0 e
0g
b0 9"
b110000000000000000000000000000100000000000000000 x
b1001 <"
0/
1z
0.
0!
0,
0+
0*
0)
0(
0'
0&
0%
0$
#521
0,
0+
0*
0)
0(
0'
0&
0%
0$
0z
#522
0,
0+
0*
0)
0(
0'
0&
0%
0$
#523
0,
0+
0*
0)
0(
0'
0&
0%
0$
#524
0,
0+
0*
0)
0(
0'
0&
0%
0$
#525
0,
0+
0*
0)
0(
0'
0&
0%
0$
#526
0,
0+
0*
0)
0(
0'
0&
0%
0$
#527
0,
0+
0*
0)
0(
0'
0&
0%
0$
#528
0,
0+
0*
0)
0(
0'
0&
0%
0$
#529
0,
0+
0*
0)
0(
0'
0&
0%
0$
#530
1/
1$"
b1000010010 #"
1.
1!
0,
0+
0*
0)
0(
0'
0&
0%
0$
#531
0,
0+
0*
0)
0(
0'
0&
0%
0$
0$"
#532
0,
0+
0*
0)
0(
0'
0&
0%
0$
#533
0,
0+
0*
0)
0(
0'
0&
0%
0$
#534
0,
0+
0*
0)
0(
0'
0&
0%
0$
#535
0,
0+
0*
0)
0(
0'
0&
0%
0$
#536
0,
0+
0*
0)
0(
0'
0&
0%
0$
#537
0,
0+
0*
0)
0(
0'
0&
0%
0$
#538
0,
0+
0*
0)
0(
0'
0&
0%
0$
#539
0,
0+
0*
0)
0(
0'
0&
0%
0$
#540
b100 7"
0/
1z
0.
0!
0,
0+
0*
0)
0(
0'
0&
0%
0$
0i
1*"
1j
#541
0,
0+
0*
0)
0(
0'
0&
0%
0$
0z
0j
0*"
#542
0,
0+
0*
0)
0(
0'
0&
0%
0$
#543
0$
#544
x8
x7
x6
x5
x4
x3
x2
bx C
x1
z%
z&
z'
z(
z)
z*
z+
bz B
bz ?
bz -
z,
0$
#545
0$
#546
0$
#547
0$
#548
0$
#549
0$
#550
1/
1$"
b1000100110 #"
1.
1!
0$
#551
0$
0$"
#552
0$
#553
0$
#554
0$
#555
0$
#556
0$
#557
z%
z&
z'
z(
z)
z*
z+
z,
0$
#558
0$
#559
0$
#560
b11 7"
0/
1z
0.
0!
0$
#561
0$
0z
#562
0$
#563
0$
#564
0$
#565
0$
#566
0$
#567
0$
#568
0$
#569
0$
#570
1/
1$"
b1000111010 #"
1.
1!
z%
z&
z'
z(
z)
z*
z+
z,
0$
#571
0$
0$"
#572
0$
#573
0$
#574
0$
#575
0$
#576
0$
#577
0$
#578
0$
#579
0$
#580
b10 7"
0/
1z
0.
0!
0$
#581
0$
0z
#582
0$
#583
z%
z&
z'
z(
z)
z*
z+
z,
0$
#584
0$
#585
0$
#586
0$
#587
0$
#588
0$
#589
0$
#590
1/
1$"
b1001001110 #"
1.
1!
0$
#591
0$
0$"
#592
0$
#593
0$
#594
0$
#595
0$
#596
z%
z&
z'
z(
z)
z*
z+
z,
0$
#597
0$
#598
0$
#599
0$
#600
b1 7"
0/
1z
0.
0!
0$
#601
0$
0z
#602
0$
#603
0$
#604
0$
#605
0$
#606
0$
#607
0$
#608
0$
#609
z%
z&
z'
z(
z)
z*
z+
z,
0$
#610
1/
1$"
b1001100010 #"
1.
1!
0$
#611
0$
0$"
#612
0$
#613
0$
#614
0$
#615
0$
#616
0$
#617
0$
#618
0$
#619
0$
#620
0h
1b
b0 7"
0/
1z
0.
0!
0$
#621
0$
0z
#622
z%
z&
z'
z(
z)
z*
z+
z,
0$
#623
0$
#624
0$
#625
0$
#626
0$
#627
0$
#628
0$
#629
0$
#630
1/
1$"
b1001110110 #"
1.
1!
0$
#631
0$
0$"
#632
0$
#633
0$
#634
0$
#635
z%
z&
z'
z(
z)
z*
z+
z,
0$
#636
0$
#637
0$
#638
0$
#639
0$
#640
b101 2"
0/
1z
0.
0!
0$
#641
0$
0z
#642
0$
#643
0$
#644
0$
#645
0$
#646
0$
#647
0$
#648
z%
z&
z'
z(
z)
z*
z+
z,
0$
#649
0$
#650
1/
1$"
b1010001010 #"
1.
1!
0$
#651
0$
0$"
#652
0$
#653
0$
#654
0$
#655
0$
#656
0$
#657
0$
#658
0$
#659
0$
#660
b100 2"
0/
1z
0.
0!
0$
1r
0b
1("
1c
#661
z%
z&
z'
z(
z)
z*
z+
z,
0$
0z
0c
0("
#662
0$
#663
0$
#664
0$
#665
0$
#666
0$
#667
0$
#668
0$
#669
0$
#670
1/
1$"
b1010011110 #"
1.
1!
0$
#671
0$
0$"
#672
0$
#673
0$
#674
z%
z&
z'
z(
z)
z*
z+
z,
0$
#675
0$
#676
0$
#677
0$
#678
0$
#679
0$
#680
b11 2"
0/
1z
0.
0!
0$
#681
0$
0z
#682
0$
#683
0$
#684
0$
#685
0$
#686
0$
#687
z%
z&
z'
z(
z)
z*
z+
z,
0$
#688
0$
#689
0$
#690
1/
1$"
b1010110010 #"
1.
1!
0$
#691
0$
0$"
#692
0$
#693
0$
#694
0$
#695
0$
#696
0$
#697
0$
#698
0$
#699
0$
#700
b10 2"
0/
1z
0.
0!
z%
z&
z'
z(
z)
z*
z+
z,
0$
#701
0$
0z
#702
0$
#703
0$
#704
0$
#705
0$
#706
0$
#707
0$
#708
0$
#709
0$
#710
1/
1$"
b1011000110 #"
1.
1!
0$
#711
0$
0$"
#712
0$
#713
z%
z&
z'
z(
z)
z*
z+
z,
0$
#714
0$
#715
0$
#716
0$
#717
0$
#718
0$
#719
0$
#720
b1 2"
0/
1z
0.
0!
0$
#721
0$
0z
#722
0$
#723
0$
#724
0$
#725
0$
#726
z%
z&
z'
z(
z)
z*
z+
z,
0$
#727
0$
#728
0$
#729
0$
#730
1/
1$"
b1011011010 #"
1.
1!
0$
#731
0$
0$"
#732
0$
#733
0$
#734
0$
#735
0$
#736
0$
#737
0$
#738
0$
#739
z%
z&
z'
z(
z)
z*
z+
z,
0$
#740
b0 2"
0/
1z
0.
0!
0$
#741
0$
0z
#742
0$
#743
0$
#744
0$
#745
0$
#746
0$
#747
0$
#748
0$
#749
0$
#750
18
07
06
05
14
13
12
b10001111 C
11
1%
1D
0&
0E
0'
0F
0(
0G
1)
1H
1*
1I
1+
1J
b10001111 B
b10001111 ?
b10001111 -
1,
1K
1-"
b10001111 \
b10001111 _
1q
1!"
1~
0r
1/
1$"
b1011101110 #"
1.
1!
0$
#751
1<
1:
1$
1;
1p
0-"
1n
0$"
#752
x8
x7
x6
x5
x4
x3
x2
bx C
x1
z%
z&
z'
z(
z)
z*
z+
bz B
bz ?
bz -
z,
1$
#753
1$
#754
1$
#755
1$
#756
1$
#757
1$
#758
1$
#759
1$
#760
08
b0xx1xxxx C
15
0%
0D
b0zz1zzzz B
b0zz1zzzz ?
b0zz1zzzz -
1(
1G
b11111 \
b10001 1"
b11111 _
0q
0/
1z
0.
0!
1$
#761
0<
0:
0$
0;
0p
0o
0z
#762
0$
#763
0$
#764
0$
#765
x8
bx C
x5
z%
z&
z'
bz B
bz ?
bz -
z(
z)
z*
z+
z,
0$
#766
0$
#767
0$
#768
0$
#769
0$
#770
18
b1xx0xxxx C
05
1%
1D
b1zz0zzzz B
b1zz0zzzz ?
b1zz0zzzz -
0(
0G
b10001111 \
b10001111 _
1q
1/
1$"
b1100000010 #"
1.
1!
0$
#771
1<
1:
1$
1;
1p
0$"
#772
1$
#773
1$
#774
1$
#775
1$
#776
1$
#777
1$
#778
x8
bx C
x5
z%
z&
z'
bz B
bz ?
bz -
z(
z)
z*
z+
z,
1$
#779
1$
#780
08
b0xx1xxxx C
15
0%
0D
b0zz1zzzz B
b0zz1zzzz ?
b0zz1zzzz -
1(
1G
b11111 \
b10010 1"
b11111 _
0q
0/
1z
0.
0!
1$
#781
0<
0:
0$
0;
0p
0z
#782
0$
#783
0$
#784
0$
#785
0$
#786
0$
#787
0$
#788
0$
#789
0$
#790
18
b1xx0xxxx C
05
1%
1D
b1zz0zzzz B
b1zz0zzzz ?
b1zz0zzzz -
0(
0G
b10001111 \
b10001111 _
1q
1/
1$"
b1100010110 #"
1.
1!
0$
#791
x8
bx C
x5
z%
z&
z'
bz B
bz ?
bz -
z(
z)
z*
z+
z,
1<
1:
1$
1;
1p
0$"
#792
1$
#793
1$
#794
1$
#795
1$
#796
1$
#797
1$
#798
1$
#799
1$
#800
08
b0xx1xxxx C
15
0%
0D
b0zz1zzzz B
b0zz1zzzz ?
b0zz1zzzz -
1(
1G
b11111 \
b10011 1"
b11111 _
0q
0/
1z
0.
0!
1$
#801
0<
0:
0$
0;
0p
0z
#802
0$
#803
0$
#804
x8
bx C
x5
z%
z&
z'
bz B
bz ?
bz -
z(
z)
z*
z+
z,
0$
#805
0$
#806
0$
#807
0$
#808
0$
#809
0$
#810
18
b1xx0xxxx C
05
1%
1D
b1zz0zzzz B
b1zz0zzzz ?
b1zz0zzzz -
0(
0G
b10001111 \
b10001111 _
1q
1/
1$"
b1100101010 #"
1.
1!
0$
#811
1<
1:
1$
1;
1p
0$"
#812
1$
#813
1$
#814
1$
#815
1$
#816
x8
bx C
x5
x<
x:
z%
zD
z&
zE
z'
zF
bz B
bz ?
bz -
z(
zG
z)
zH
z*
zI
z+
zJ
z,
zK
0!"
0~
z;
zp
bz \
zq
bz _
b0 w
10
1%"
1"
z$
#817
z%
z&
z'
z(
z)
z*
z+
z,
z$
0%"
#818
z$
#819
z$
#820
0/
1z
0.
0!
z$
#821
z$
0z
#822
z$
#823
z$
#824
z$
#825
z$
#826
z$
#827
z$
#828
z$
#829
z$
#830
z%
z&
z'
z(
z)
z*
z+
z,
z$
#831
z$
#832
z$
#833
z$
#834
z$
#835
z$
#836
z$
#837
z$
#838
z$
#839
z$
#840
z$
#841
z$
#842
z$
#843
z%
z&
z'
z(
z)
z*
z+
z,
z$
#844
z$
#845
z$
#846
z$
#847
z$
#848
z$
#849
z$
#850
z$
#851
z$
#852
z$
#853
z$
#854
z$
#855
1<
1:
x=
1;
1p
b1 w
0m
b110000 9"
00
1{
01
02
03
04
05
06
07
b0 C
08
0"
0,
0+
0*
0)
0(
0'
0&
b0 B
b0 ?
b0 -
0%
1$
#856
0,
0+
0*
0)
0(
0'
0&
0%
1$
0{
#857
0,
0+
0*
0)
0(
0'
0&
0%
1$
#858
0,
0+
0*
0)
0(
0'
0&
0%
1$
#859
0,
0+
0*
0)
0(
0'
0&
0%
1$
#860
1q
1h
1g
b101000 9"
b100000000000000000 x
b1001 <"
1/
1$"
b1101011100 #"
b110010 T
1.
1!
0,
0+
0*
0)
0(
0'
0&
0%
1$
#861
0,
0+
0*
0)
0(
0'
0&
0%
1$
0$"
#862
0,
0+
0*
0)
0(
0'
0&
0%
1$
#863
0,
0+
0*
0)
0(
0'
0&
0%
1$
#864
0,
0+
0*
0)
0(
0'
0&
0%
1$
#865
0,
0+
0*
0)
0(
0'
0&
0%
1$
#866
0,
0+
0*
0)
0(
0'
0&
0%
1$
#867
0,
0+
0*
0)
0(
0'
0&
0%
1$
#868
0,
0+
0*
0)
0(
0'
0&
0%
1$
