tests/waves.vcd
$date
	Thu Apr  3 14:26:28 2025
$end
$version
	Icarus Verilog
$end
$timescale
	1ps
$end
$scope module hbc_wrapper $end
$var wire 1 ! i_cfg_access $end
$var wire 1 " i_clk $end
$var wire 8 # i_dq [7:0] $end
$var wire 32 $ i_mem_addr [31:0] $end
$var wire 1 % i_mem_valid $end
$var wire 32 & i_mem_wdata [31:0] $end
$var wire 4 ' i_mem_wstrb [3:0] $end
$var wire 1 ( i_rstn $end
$var wire 1 ) i_rwds $end
$var wire 1 * o_csn1 $end
$var wire 1 + o_rwds_de $end
$var wire 1 , o_rwds $end
$var wire 1 - o_resetn $end
$var wire 1 . o_mem_ready $end
$var wire 32 / o_mem_rdata [31:0] $end
$var wire 1 0 o_dq_de $end
$var wire 8 1 o_dq [7:0] $end
$var wire 1 2 o_csn0 $end
$var wire 1 3 o_clkn $end
$var wire 1 4 o_clk $end
$scope module u_hbc $end
$var wire 1 ! i_cfg_access $end
$var wire 1 " i_clk $end
$var wire 8 5 i_dq [7:0] $end
$var wire 32 6 i_mem_addr [31:0] $end
$var wire 1 % i_mem_valid $end
$var wire 32 7 i_mem_wdata [31:0] $end
$var wire 4 8 i_mem_wstrb [3:0] $end
$var wire 1 ( i_rstn $end
$var wire 1 ) i_rwds $end
$var wire 1 4 o_clk $end
$var wire 1 3 o_clkn $end
$var wire 1 2 o_csn0 $end
$var wire 1 * o_csn1 $end
$var wire 1 0 o_dq_de $end
$var wire 32 9 o_mem_rdata [31:0] $end
$var wire 1 . o_mem_ready $end
$var wire 1 - o_resetn $end
$var wire 1 + o_rwds_de $end
$var wire 1 : rwds_valid $end
$var wire 4 ; wstrb_words [3:0] $end
$var wire 1 , o_rwds $end
$var wire 8 < o_dq [7:0] $end
$var reg 1 4 bus_clk $end
$var reg 48 = ca [47:0] $end
$var reg 32 > mem_rdata [31:0] $end
$var reg 1 ? mem_ready $end
$var reg 1 @ rwds_d $end
$var reg 3 A state [2:0] $end
$var reg 32 B wdata [31:0] $end
$var reg 4 C wstrb [3:0] $end
$var integer 32 D counter [31:0] $end
$upscope $end
$upscope $end
$enddefinitions $end
#0
$dumpvars
b0 D
bx C
bx B
b0 A
x@
0?
b0 >
b0 =
b0 <
bx ;
x:
b0 9
bz 8
bz 7
bz 6
bz 5
04
13
12
b0 1
00
b0 /
0.
0-
0,
0+
1*
z)
0(
bz '
bz &
z%
bz $
bz #
1"
z!
$end
#5000
0"
#10000
1"
#15000
0"
#20000
1"
#25000
0"
#30000
1"
#35000
0"
#40000
1"
#45000
0"
#50000
1"
#55000
0"
#60000
1"
#65000
0"
#70000
1"
#75000
0"
#80000
1"
#85000
0"
#90000
1"
#95000
0"
#100000
z@
1"
1-
1(
#105000
0"
#110000
1"
#115000
0"
#120000
1"
#125000
0"
#130000
1"
#135000
0"
#140000
1"
#145000
0"
#150000
1"
#155000
0"
#160000
1"
#165000
0"
#170000
1"
#175000
0"
#180000
1"
#185000
0"
#190000
1"
#195000
0"
#200000
1@
1:
1"
b0 #
b0 5
1)
b0 &
b0 7
b0 $
b0 6
b0 '
b0 8
0%
0!
#205000
0"
#210000
1"
#215000
0"
#220000
1"
#225000
0"
#230000
1"
#235000
0"
#240000
1"
#245000
0"
#250000
1"
#255000
0"
#260000
1"
#265000
0"
#270000
1"
#275000
0"
#280000
1"
#285000
0"
#290000
1"
#295000
0"
#300000
1"
0-
0(
#305000
0"
#310000
1"
#315000
0"
#320000
1"
#325000
0"
#330000
1"
#335000
0"
#340000
1"
#345000
0"
#350000
1"
#355000
0"
#360000
1"
#365000
0"
#370000
1"
#375000
0"
#380000
1"
#385000
0"
#390000
1"
#395000
0"
#400000
1"
1-
1(
02
#405000
03
14
0"
#410000
10
b1111 ;
b1 A
b101 D
b1111 C
b11011110101011011011111011101111 B
b10000000000000000000000000 =
1"
b11011110101011011011111011101111 &
b11011110101011011011111011101111 7
b1000000000000 $
b1000000000000 6
b1111 '
b1111 8
1%
#415000
13
04
0"
#420000
b100 D
1"
#425000
03
14
0"
#430000
b10 1
b10 <
b11 D
1"
12
0%
#435000
13
04
0"
#440000
b0 1
b0 <
b10 D
1"
#445000
0"
#450000
b1 D
1"
#455000
0"
#460000
b0 D
1"
#465000
0"
#470000
00
b10 A
b10101 D
1"
#475000
0"
#480000
b10100 D
1"
#485000
0"
#490000
b10011 D
1"
#495000
0"
#500000
b10010 D
1"
#505000
0"
#510000
b10001 D
1"
#515000
0"
#520000
b10000 D
1"
#525000
0"
#530000
b1111 D
1"
#535000
0"
#540000
b1110 D
1"
02
#545000
03
14
0"
#550000
b1101 D
1"
b0 '
b0 8
1%
#555000
13
04
0"
#560000
b1100 D
1"
#565000
03
14
0"
#570000
b1011 D
1"
12
0%
#575000
13
04
0"
#580000
b1010 D
1"
#585000
0"
#590000
b1001 D
1"
#595000
0"
#600000
b1000 D
1"
#605000
0"
#610000
b111 D
1"
#615000
0"
#620000
b110 D
1"
#625000
0"
#630000
b101 D
1"
#635000
0"
#640000
b100 D
1"
#645000
0"
#650000
b11 D
1"
#655000
0"
#660000
b10 D
1"
#665000
0"
#670000
b1 D
1"
#675000
0"
#680000
b0 D
1"
#685000
0"
#690000
b10111110 1
b10111110 <
10
1+
b11 A
b11 D
1"
#695000
0"
#700000
b11101111 1
b11101111 <
b10 D
1"
#705000
0"
#710000
b11011110 1
b11011110 <
b1 D
1"
#715000
0"
#720000
b10101101 1
b10101101 <
b0 D
1"
#725000
0"
#730000
b0 1
b0 <
00
0+
b101 A
1"
#735000
0"
#740000
b0 A
1.
1?
1"
#745000
0"
#750000
0.
0?
1"
